{
"pokemon" : [
{ "name": "Squirtle",
  "points": 0
},{
  "name": "Charizard",
  "points": 0
},{
  "name": "Pikachu",
  "points": 0
},{
  "name": "Snorlax",
  "points": 0
},{
  "name": "Vulpix",
  "points": 0
},{
  "name": "Psyduck",
  "points": 0
},{
  "name": "Lickitung",
  "points": 0
},{
  "name": "Chansey",
  "points": 0
},{
  "name": "Magikarp",
  "points": 0
},{
  "name": "Kadabra",
  "points": 0
},{
  "name": "Mr. Mime",
  "points": 0
},{
  "name": "Slowpoke",
  "points": 0
}
]
}
